{"name":"Verify that admin can create user","id":"this-is-feature-contains-all-scenarios-involves-user;verify-that-admin-can-create-user","testSteps":[{"number":1,"description":"1: Verify that admin can create user ({name\u003dmorpheus, job\u003dleader})","duration":1088,"startTime":"2022-03-15T10:52:15.093+07:00[Asia/Ho_Chi_Minh]","exception":{"errorType":"java.lang.AssertionError","message":"1 expectation failed.\nJSON path name doesn\u0027t match.\nExpected: morpheus\n  Actual: null\n","stackTrace":[{"declaringClass":"io.restassured.internal.ResponseSpecificationImpl","methodName":"validateResponseIfRequired","fileName":"ResponseSpecificationImpl.groovy","lineNumber":674},{"declaringClass":"io.restassured.internal.ResponseSpecificationImpl","methodName":"body","fileName":"ResponseSpecificationImpl.groovy","lineNumber":261},{"declaringClass":"io.restassured.internal.ResponseSpecificationImpl","methodName":"body","fileName":"ResponseSpecificationImpl.groovy","lineNumber":108},{"declaringClass":"io.restassured.internal.ValidatableResponseOptionsImpl","methodName":"body","fileName":"ValidatableResponseOptionsImpl.java","lineNumber":244},{"declaringClass":"io.restassured.internal.ValidatableResponseImpl","methodName":"super$2$body","fileName":"ValidatableResponseImpl.groovy","lineNumber":-1},{"declaringClass":"groovy.lang.MetaMethod","methodName":"doMethodInvoke","fileName":"MetaMethod.java","lineNumber":323},{"declaringClass":"groovy.lang.MetaClassImpl","methodName":"invokeMethod","fileName":"MetaClassImpl.java","lineNumber":1268},{"declaringClass":"io.restassured.internal.ValidatableResponseImpl","methodName":"body","fileName":"ValidatableResponseImpl.groovy","lineNumber":298},{"declaringClass":"io.restassured.internal.ValidatableResponseImpl","methodName":"body","fileName":"ValidatableResponseImpl.groovy","lineNumber":-1},{"declaringClass":"com.demouser.cucumber.steps.UserSteps","methodName":"checkIfTheUserIsAddedWith","fileName":"UserSteps.java","lineNumber":53},{"declaringClass":"✽","methodName":"check if the user is added with \"morpheus\"","fileName":"file:///Users/tuyenle/Documents/Automation/demoANWeb/demoApi2/src/test/resources/features/user.feature","lineNumber":10}]},"result":"FAILURE","precondition":false,"level":0,"lineNumber":13,"children":[{"number":2,"description":"When The admin can create new user with \"morpheus\" and \"leader\"","duration":704,"startTime":"2022-03-15T10:52:15.094+07:00[Asia/Ho_Chi_Minh]","result":"SUCCESS","precondition":false,"level":1,"children":[{"number":3,"description":"The admin can create new user with and: morpheus, leader","duration":699,"startTime":"2022-03-15T10:52:15.098+07:00[Asia/Ho_Chi_Minh]","result":"SUCCESS","precondition":false,"level":2,"children":[{"number":4,"description":"POST https://reqres.in/api/users","duration":0,"startTime":"2022-03-15T10:52:15.796+07:00[Asia/Ho_Chi_Minh]","result":"SUCCESS","restQuery":{"method":"POST","path":"https://reqres.in/api/users","content":"{\"name\":\"morpheus\",\"job\":\"leader\"}","contentType":"text/plain","requestHeaders":"Accept\u003d*/*\n\t\t\t\tContent-Type\u003dtext/plain; charset\u003dISO-8859-1","requestCookies":"","responseHeaders":"Date: Tue, 15 Mar 2022 03:52:15 GMT\nContent-Type: application/json; charset\u003dutf-8\nContent-Length: 51\nConnection: keep-alive\nX-Powered-By: Express\nAccess-Control-Allow-Origin: *\nEtag: W/\"33-rWBwZ8PLNa2lQ2qVQVkUJ+TQsY0\"\nVia: 1.1 vegur\nCF-Cache-Status: DYNAMIC\nExpect-CT: max-age\u003d604800, report-uri\u003d\"https://report-uri.cloudflare.com/cdn-cgi/beacon/expect-ct\"\nReport-To: {\"endpoints\":[{\"url\":\"https:\\/\\/a.nel.cloudflare.com\\/report\\/v3?s\u003dYZWUGqpnIKW5kcq%2FJdCAcNL%2Fz93Y8PP3N3thDG%2FV5gapi3wF4%2FtBo8iAoF3Kdoz6YkAHgg222%2FGkvMhS%2FmZuWEPkPPhsOQAxTGEmBrexX753nGeQ9Tmo4WDTajo%3D\"}],\"group\":\"cf-nel\",\"max_age\":604800}\nNEL: {\"success_fraction\":0,\"report_to\":\"cf-nel\",\"max_age\":604800}\nServer: cloudflare\nCF-RAY: 6ec24b98efec017a-SIN\nalt-svc: h3\u003d\":443\"; ma\u003d86400, h3-29\u003d\":443\"; ma\u003d86400","responseCookies":"","responseBody":"{\n    \"id\": \"250\",\n    \"createdAt\": \"2022-03-15T03:52:15.780Z\"\n}","statusCode":201},"precondition":false,"level":3}]}]},{"number":5,"description":"Then check if the user is added with \"morpheus\"","duration":374,"startTime":"2022-03-15T10:52:15.799+07:00[Asia/Ho_Chi_Minh]","exception":{"errorType":"java.lang.AssertionError","message":"1 expectation failed.\nJSON path name doesn\u0027t match.\nExpected: morpheus\n  Actual: null\n","stackTrace":[{"declaringClass":"io.restassured.internal.ResponseSpecificationImpl","methodName":"validateResponseIfRequired","fileName":"ResponseSpecificationImpl.groovy","lineNumber":674},{"declaringClass":"io.restassured.internal.ResponseSpecificationImpl","methodName":"body","fileName":"ResponseSpecificationImpl.groovy","lineNumber":261},{"declaringClass":"io.restassured.internal.ResponseSpecificationImpl","methodName":"body","fileName":"ResponseSpecificationImpl.groovy","lineNumber":108},{"declaringClass":"io.restassured.internal.ValidatableResponseOptionsImpl","methodName":"body","fileName":"ValidatableResponseOptionsImpl.java","lineNumber":244},{"declaringClass":"io.restassured.internal.ValidatableResponseImpl","methodName":"super$2$body","fileName":"ValidatableResponseImpl.groovy","lineNumber":-1},{"declaringClass":"groovy.lang.MetaMethod","methodName":"doMethodInvoke","fileName":"MetaMethod.java","lineNumber":323},{"declaringClass":"groovy.lang.MetaClassImpl","methodName":"invokeMethod","fileName":"MetaClassImpl.java","lineNumber":1268},{"declaringClass":"io.restassured.internal.ValidatableResponseImpl","methodName":"body","fileName":"ValidatableResponseImpl.groovy","lineNumber":298},{"declaringClass":"io.restassured.internal.ValidatableResponseImpl","methodName":"body","fileName":"ValidatableResponseImpl.groovy","lineNumber":-1},{"declaringClass":"com.demouser.cucumber.steps.UserSteps","methodName":"checkIfTheUserIsAddedWith","fileName":"UserSteps.java","lineNumber":53},{"declaringClass":"✽","methodName":"check if the user is added with \"morpheus\"","fileName":"file:///Users/tuyenle/Documents/Automation/demoANWeb/demoApi2/src/test/resources/features/user.feature","lineNumber":10}]},"result":"FAILURE","precondition":false,"level":1,"children":[{"number":6,"description":"GET https://reqres.in/api/users?page\u003d2","duration":0,"startTime":"2022-03-15T10:52:16.129+07:00[Asia/Ho_Chi_Minh]","result":"SUCCESS","restQuery":{"method":"GET","path":"https://reqres.in/api/users?page\u003d2","content":"","contentType":"null","requestHeaders":"Accept\u003d*/*","requestCookies":"","responseHeaders":"Date: Tue, 15 Mar 2022 03:52:16 GMT\nContent-Type: application/json; charset\u003dutf-8\nTransfer-Encoding: chunked\nConnection: keep-alive\nX-Powered-By: Express\nAccess-Control-Allow-Origin: *\nEtag: W/\"406-ut0vzoCuidvyMf8arZpMpJ6ZRDw\"\nVia: 1.1 vegur\nCache-Control: max-age\u003d14400\nCF-Cache-Status: HIT\nAge: 2\nExpect-CT: max-age\u003d604800, report-uri\u003d\"https://report-uri.cloudflare.com/cdn-cgi/beacon/expect-ct\"\nReport-To: {\"endpoints\":[{\"url\":\"https:\\/\\/a.nel.cloudflare.com\\/report\\/v3?s\u003dtgg8RkLewU5NWZyG7B3L6IAvafip7Moq42FCJzEYuccl%2FNmHYTnjOUZGMgqVgECCN7jqxNAOsQX8K1xmQgfhmv4EI5as2Z5yG1d85VM7HzZsy3x7%2BeVddLx8xS4%3D\"}],\"group\":\"cf-nel\",\"max_age\":604800}\nNEL: {\"success_fraction\":0,\"report_to\":\"cf-nel\",\"max_age\":604800}\nVary: Accept-Encoding\nServer: cloudflare\nCF-RAY: 6ec24b9d2d6887de-SIN\nContent-Encoding: gzip\nalt-svc: h3\u003d\":443\"; ma\u003d86400, h3-29\u003d\":443\"; ma\u003d86400","responseCookies":"","responseBody":"{\n    \"page\": 2,\n    \"per_page\": 6,\n    \"total\": 12,\n    \"total_pages\": 2,\n    \"data\": [\n        {\n            \"id\": 7,\n            \"email\": \"michael.lawson@reqres.in\",\n            \"first_name\": \"Michael\",\n            \"last_name\": \"Lawson\",\n            \"avatar\": \"https://reqres.in/img/faces/7-image.jpg\"\n        },\n        {\n            \"id\": 8,\n            \"email\": \"lindsay.ferguson@reqres.in\",\n            \"first_name\": \"Lindsay\",\n            \"last_name\": \"Ferguson\",\n            \"avatar\": \"https://reqres.in/img/faces/8-image.jpg\"\n        },\n        {\n            \"id\": 9,\n            \"email\": \"tobias.funke@reqres.in\",\n            \"first_name\": \"Tobias\",\n            \"last_name\": \"Funke\",\n            \"avatar\": \"https://reqres.in/img/faces/9-image.jpg\"\n        },\n        {\n            \"id\": 10,\n            \"email\": \"byron.fields@reqres.in\",\n            \"first_name\": \"Byron\",\n            \"last_name\": \"Fields\",\n            \"avatar\": \"https://reqres.in/img/faces/10-image.jpg\"\n        },\n        {\n            \"id\": 11,\n            \"email\": \"george.edwards@reqres.in\",\n            \"first_name\": \"George\",\n            \"last_name\": \"Edwards\",\n            \"avatar\": \"https://reqres.in/img/faces/11-image.jpg\"\n        },\n        {\n            \"id\": 12,\n            \"email\": \"rachel.howell@reqres.in\",\n            \"first_name\": \"Rachel\",\n            \"last_name\": \"Howell\",\n            \"avatar\": \"https://reqres.in/img/faces/12-image.jpg\"\n        }\n    ],\n    \"support\": {\n        \"url\": \"https://reqres.in/#support-heading\",\n        \"text\": \"To keep ReqRes free, contributions towards server costs are appreciated!\"\n    }\n}","statusCode":200},"precondition":false,"level":2}]}]},{"number":7,"description":"2: Verify that admin can create user ({name\u003dtuyen, job\u003dmember})","duration":1140,"startTime":"2022-03-15T10:52:16.225+07:00[Asia/Ho_Chi_Minh]","exception":{"errorType":"java.lang.AssertionError","message":"1 expectation failed.\nJSON path name doesn\u0027t match.\nExpected: tuyen\n  Actual: null\n","stackTrace":[{"declaringClass":"io.restassured.internal.ResponseSpecificationImpl","methodName":"validateResponseIfRequired","fileName":"ResponseSpecificationImpl.groovy","lineNumber":674},{"declaringClass":"io.restassured.internal.ResponseSpecificationImpl","methodName":"body","fileName":"ResponseSpecificationImpl.groovy","lineNumber":261},{"declaringClass":"io.restassured.internal.ResponseSpecificationImpl","methodName":"body","fileName":"ResponseSpecificationImpl.groovy","lineNumber":108},{"declaringClass":"io.restassured.internal.ValidatableResponseOptionsImpl","methodName":"body","fileName":"ValidatableResponseOptionsImpl.java","lineNumber":244},{"declaringClass":"io.restassured.internal.ValidatableResponseImpl","methodName":"super$2$body","fileName":"ValidatableResponseImpl.groovy","lineNumber":-1},{"declaringClass":"groovy.lang.MetaMethod","methodName":"doMethodInvoke","fileName":"MetaMethod.java","lineNumber":323},{"declaringClass":"groovy.lang.MetaClassImpl","methodName":"invokeMethod","fileName":"MetaClassImpl.java","lineNumber":1268},{"declaringClass":"io.restassured.internal.ValidatableResponseImpl","methodName":"body","fileName":"ValidatableResponseImpl.groovy","lineNumber":298},{"declaringClass":"io.restassured.internal.ValidatableResponseImpl","methodName":"body","fileName":"ValidatableResponseImpl.groovy","lineNumber":-1},{"declaringClass":"com.demouser.cucumber.steps.UserSteps","methodName":"checkIfTheUserIsAddedWith","fileName":"UserSteps.java","lineNumber":53},{"declaringClass":"✽","methodName":"check if the user is added with \"tuyen\"","fileName":"file:///Users/tuyenle/Documents/Automation/demoANWeb/demoApi2/src/test/resources/features/user.feature","lineNumber":10}]},"result":"FAILURE","precondition":false,"level":0,"lineNumber":14,"children":[{"number":8,"description":"When The admin can create new user with \"tuyen\" and \"member\"","duration":773,"startTime":"2022-03-15T10:52:16.226+07:00[Asia/Ho_Chi_Minh]","result":"SUCCESS","precondition":false,"level":1,"children":[{"number":9,"description":"The admin can create new user with and: tuyen, member","duration":768,"startTime":"2022-03-15T10:52:16.228+07:00[Asia/Ho_Chi_Minh]","result":"SUCCESS","precondition":false,"level":2,"children":[{"number":10,"description":"POST https://reqres.in/api/users","duration":0,"startTime":"2022-03-15T10:52:16.996+07:00[Asia/Ho_Chi_Minh]","result":"SUCCESS","restQuery":{"method":"POST","path":"https://reqres.in/api/users","content":"{\"name\":\"tuyen\",\"job\":\"member\"}","contentType":"text/plain","requestHeaders":"Accept\u003d*/*\n\t\t\t\tContent-Type\u003dtext/plain; charset\u003dISO-8859-1","requestCookies":"","responseHeaders":"Date: Tue, 15 Mar 2022 03:52:16 GMT\nContent-Type: application/json; charset\u003dutf-8\nContent-Length: 51\nConnection: keep-alive\nX-Powered-By: Express\nAccess-Control-Allow-Origin: *\nEtag: W/\"33-LYq4NwAz1XN7eqezYR56Rj23BvE\"\nVia: 1.1 vegur\nCF-Cache-Status: DYNAMIC\nExpect-CT: max-age\u003d604800, report-uri\u003d\"https://report-uri.cloudflare.com/cdn-cgi/beacon/expect-ct\"\nReport-To: {\"endpoints\":[{\"url\":\"https:\\/\\/a.nel.cloudflare.com\\/report\\/v3?s\u003dDz0idOA5eeCYEfH0cRYkPGepU%2BoEvbbSunwc1Z4SxAd8cC9nxDtr1DCeEZ95Q8cz%2Fz0roJjGLPN9Ibxfaar5UskC%2F5i6W4dXwOrrYdmOBDNEuI%2FjqpEocyejEyg%3D\"}],\"group\":\"cf-nel\",\"max_age\":604800}\nNEL: {\"success_fraction\":0,\"report_to\":\"cf-nel\",\"max_age\":604800}\nServer: cloudflare\nCF-RAY: 6ec24b9ff8e94bbc-SIN\nalt-svc: h3\u003d\":443\"; ma\u003d86400, h3-29\u003d\":443\"; ma\u003d86400","responseCookies":"","responseBody":"{\n    \"id\": \"651\",\n    \"createdAt\": \"2022-03-15T03:52:16.912Z\"\n}","statusCode":201},"precondition":false,"level":3}]}]},{"number":11,"description":"Then check if the user is added with \"tuyen\"","duration":361,"startTime":"2022-03-15T10:52:17+07:00[Asia/Ho_Chi_Minh]","exception":{"errorType":"java.lang.AssertionError","message":"1 expectation failed.\nJSON path name doesn\u0027t match.\nExpected: tuyen\n  Actual: null\n","stackTrace":[{"declaringClass":"io.restassured.internal.ResponseSpecificationImpl","methodName":"validateResponseIfRequired","fileName":"ResponseSpecificationImpl.groovy","lineNumber":674},{"declaringClass":"io.restassured.internal.ResponseSpecificationImpl","methodName":"body","fileName":"ResponseSpecificationImpl.groovy","lineNumber":261},{"declaringClass":"io.restassured.internal.ResponseSpecificationImpl","methodName":"body","fileName":"ResponseSpecificationImpl.groovy","lineNumber":108},{"declaringClass":"io.restassured.internal.ValidatableResponseOptionsImpl","methodName":"body","fileName":"ValidatableResponseOptionsImpl.java","lineNumber":244},{"declaringClass":"io.restassured.internal.ValidatableResponseImpl","methodName":"super$2$body","fileName":"ValidatableResponseImpl.groovy","lineNumber":-1},{"declaringClass":"groovy.lang.MetaMethod","methodName":"doMethodInvoke","fileName":"MetaMethod.java","lineNumber":323},{"declaringClass":"groovy.lang.MetaClassImpl","methodName":"invokeMethod","fileName":"MetaClassImpl.java","lineNumber":1268},{"declaringClass":"io.restassured.internal.ValidatableResponseImpl","methodName":"body","fileName":"ValidatableResponseImpl.groovy","lineNumber":298},{"declaringClass":"io.restassured.internal.ValidatableResponseImpl","methodName":"body","fileName":"ValidatableResponseImpl.groovy","lineNumber":-1},{"declaringClass":"com.demouser.cucumber.steps.UserSteps","methodName":"checkIfTheUserIsAddedWith","fileName":"UserSteps.java","lineNumber":53},{"declaringClass":"✽","methodName":"check if the user is added with \"tuyen\"","fileName":"file:///Users/tuyenle/Documents/Automation/demoANWeb/demoApi2/src/test/resources/features/user.feature","lineNumber":10}]},"result":"FAILURE","precondition":false,"level":1,"children":[{"number":12,"description":"GET https://reqres.in/api/users?page\u003d2","duration":0,"startTime":"2022-03-15T10:52:17.339+07:00[Asia/Ho_Chi_Minh]","result":"SUCCESS","restQuery":{"method":"GET","path":"https://reqres.in/api/users?page\u003d2","content":"","contentType":"null","requestHeaders":"Accept\u003d*/*","requestCookies":"","responseHeaders":"Date: Tue, 15 Mar 2022 03:52:17 GMT\nContent-Type: application/json; charset\u003dutf-8\nTransfer-Encoding: chunked\nConnection: keep-alive\nX-Powered-By: Express\nAccess-Control-Allow-Origin: *\nEtag: W/\"406-ut0vzoCuidvyMf8arZpMpJ6ZRDw\"\nVia: 1.1 vegur\nCache-Control: max-age\u003d14400\nCF-Cache-Status: HIT\nAge: 2178\nExpect-CT: max-age\u003d604800, report-uri\u003d\"https://report-uri.cloudflare.com/cdn-cgi/beacon/expect-ct\"\nReport-To: {\"endpoints\":[{\"url\":\"https:\\/\\/a.nel.cloudflare.com\\/report\\/v3?s\u003d1lAjFk02lU58Xx88B%2BHxqyRxqoTDSYQejFYBkpyGpR%2Fd1DxG9WZ3suxANM5YtOO5DjpYC6VqvkrYBsBhdlWCtYpmja3g%2B9ydAQa6P82ovtPV%2BwNRFhe26gta%2Bcc%3D\"}],\"group\":\"cf-nel\",\"max_age\":604800}\nNEL: {\"success_fraction\":0,\"report_to\":\"cf-nel\",\"max_age\":604800}\nVary: Accept-Encoding\nServer: cloudflare\nCF-RAY: 6ec24ba4baf491ba-SIN\nContent-Encoding: gzip\nalt-svc: h3\u003d\":443\"; ma\u003d86400, h3-29\u003d\":443\"; ma\u003d86400","responseCookies":"","responseBody":"{\n    \"page\": 2,\n    \"per_page\": 6,\n    \"total\": 12,\n    \"total_pages\": 2,\n    \"data\": [\n        {\n            \"id\": 7,\n            \"email\": \"michael.lawson@reqres.in\",\n            \"first_name\": \"Michael\",\n            \"last_name\": \"Lawson\",\n            \"avatar\": \"https://reqres.in/img/faces/7-image.jpg\"\n        },\n        {\n            \"id\": 8,\n            \"email\": \"lindsay.ferguson@reqres.in\",\n            \"first_name\": \"Lindsay\",\n            \"last_name\": \"Ferguson\",\n            \"avatar\": \"https://reqres.in/img/faces/8-image.jpg\"\n        },\n        {\n            \"id\": 9,\n            \"email\": \"tobias.funke@reqres.in\",\n            \"first_name\": \"Tobias\",\n            \"last_name\": \"Funke\",\n            \"avatar\": \"https://reqres.in/img/faces/9-image.jpg\"\n        },\n        {\n            \"id\": 10,\n            \"email\": \"byron.fields@reqres.in\",\n            \"first_name\": \"Byron\",\n            \"last_name\": \"Fields\",\n            \"avatar\": \"https://reqres.in/img/faces/10-image.jpg\"\n        },\n        {\n            \"id\": 11,\n            \"email\": \"george.edwards@reqres.in\",\n            \"first_name\": \"George\",\n            \"last_name\": \"Edwards\",\n            \"avatar\": \"https://reqres.in/img/faces/11-image.jpg\"\n        },\n        {\n            \"id\": 12,\n            \"email\": \"rachel.howell@reqres.in\",\n            \"first_name\": \"Rachel\",\n            \"last_name\": \"Howell\",\n            \"avatar\": \"https://reqres.in/img/faces/12-image.jpg\"\n        }\n    ],\n    \"support\": {\n        \"url\": \"https://reqres.in/#support-heading\",\n        \"text\": \"To keep ReqRes free, contributions towards server costs are appreciated!\"\n    }\n}","statusCode":200},"precondition":false,"level":2}]}]}],"userStory":{"id":"this-is-feature-contains-all-scenarios-involves-user","storyName":"This is feature contains all scenarios involves user","displayName":"This is feature contains all scenarios involves user","path":"user.feature","type":"feature"},"featureTag":{"name":"This is feature contains all scenarios involves user","type":"feature","displayName":"This is feature contains all scenarios involves user"},"title":"Verify that admin can create user","description":"","tags":[{"name":"This is feature contains all scenarios involves user","type":"feature","displayName":"This is feature contains all scenarios involves user"},{"name":"CreateUser","type":"tag","displayName":"CreateUser"}],"startTime":"2022-03-15T10:52:15.091+07:00[Asia/Ho_Chi_Minh]","duration":2277,"testFailureCause":{"errorType":"java.lang.AssertionError","message":"1 expectation failed.\nJSON path name doesn\u0027t match.\nExpected: morpheus\n  Actual: null\n","stackTrace":[{"declaringClass":"io.restassured.internal.ResponseSpecificationImpl","methodName":"validateResponseIfRequired","fileName":"ResponseSpecificationImpl.groovy","lineNumber":674},{"declaringClass":"io.restassured.internal.ResponseSpecificationImpl","methodName":"body","fileName":"ResponseSpecificationImpl.groovy","lineNumber":261},{"declaringClass":"io.restassured.internal.ResponseSpecificationImpl","methodName":"body","fileName":"ResponseSpecificationImpl.groovy","lineNumber":108},{"declaringClass":"io.restassured.internal.ValidatableResponseOptionsImpl","methodName":"body","fileName":"ValidatableResponseOptionsImpl.java","lineNumber":244},{"declaringClass":"io.restassured.internal.ValidatableResponseImpl","methodName":"super$2$body","fileName":"ValidatableResponseImpl.groovy","lineNumber":-1},{"declaringClass":"groovy.lang.MetaMethod","methodName":"doMethodInvoke","fileName":"MetaMethod.java","lineNumber":323},{"declaringClass":"groovy.lang.MetaClassImpl","methodName":"invokeMethod","fileName":"MetaClassImpl.java","lineNumber":1268},{"declaringClass":"io.restassured.internal.ValidatableResponseImpl","methodName":"body","fileName":"ValidatableResponseImpl.groovy","lineNumber":298},{"declaringClass":"io.restassured.internal.ValidatableResponseImpl","methodName":"body","fileName":"ValidatableResponseImpl.groovy","lineNumber":-1},{"declaringClass":"com.demouser.cucumber.steps.UserSteps","methodName":"checkIfTheUserIsAddedWith","fileName":"UserSteps.java","lineNumber":53},{"declaringClass":"✽","methodName":"check if the user is added with \"morpheus\"","fileName":"file:///Users/tuyenle/Documents/Automation/demoANWeb/demoApi2/src/test/resources/features/user.feature","lineNumber":10}]},"testFailureClassname":"java.lang.AssertionError","testFailureMessage":"1 expectation failed.\nJSON path name doesn\u0027t match.\nExpected: morpheus\n  Actual: null\n","testFailureSummary":"FAILURE;java.lang.AssertionError;1 expectation failed.\nJSON path name doesn\u0027t match.\nExpected: morpheus\n  Actual: null\n;ResponseSpecificationImpl.groovy","projectKey":"","isManualTestingUpToDate":false,"dataTable":{"headers":["name","job"],"rows":[{"values":["morpheus","leader"],"lineNumber":13,"result":"FAILURE"},{"values":["tuyen","member"],"lineNumber":14,"result":"FAILURE"}],"predefinedRows":true,"scenarioOutline":"When The admin can create new user with \"\u003cname\u003e\" and \"\u003cjob\u003e\"\n\rThen check if the user is added with \"\u003cname\u003e\"\n\r","dataSetDescriptors":[{"startRow":0,"rowCount":0,"name":"","description":""}]},"manual":false,"testSource":"Cucumber","result":"FAILURE","scenarioOutline":"When The admin can create new user with \"\u003cname\u003e\" and \"\u003cjob\u003e\"\nThen check if the user is added with \"\u003cname\u003e\""}