{"name":"Verify that the status code return 200 when user get list","id":"this-is-feature-contains-all-scenarios-involves-user;verify-that-the-status-code-return-200-when-user-get-list","testSteps":[{"number":1,"description":"When user sen get request to get list user then the response show the list user","duration":1223,"startTime":"2022-03-15T10:52:13.863+07:00[Asia/Ho_Chi_Minh]","result":"SUCCESS","precondition":false,"level":0,"children":[{"number":2,"description":"GET https://reqres.in/api/users?page\u003d2","duration":1,"startTime":"2022-03-15T10:52:14.637+07:00[Asia/Ho_Chi_Minh]","result":"SUCCESS","restQuery":{"method":"GET","path":"https://reqres.in/api/users?page\u003d2","content":"","contentType":"null","requestHeaders":"Accept\u003d*/*","requestCookies":"","responseHeaders":"Date: Tue, 15 Mar 2022 03:52:14 GMT\nContent-Type: application/json; charset\u003dutf-8\nTransfer-Encoding: chunked\nConnection: keep-alive\nX-Powered-By: Express\nAccess-Control-Allow-Origin: *\nEtag: W/\"406-ut0vzoCuidvyMf8arZpMpJ6ZRDw\"\nVia: 1.1 vegur\nCache-Control: max-age\u003d14400\nCF-Cache-Status: REVALIDATED\nExpect-CT: max-age\u003d604800, report-uri\u003d\"https://report-uri.cloudflare.com/cdn-cgi/beacon/expect-ct\"\nReport-To: {\"endpoints\":[{\"url\":\"https:\\/\\/a.nel.cloudflare.com\\/report\\/v3?s\u003dnjOo4vVxVJKgaXYWNiAECzcT19BeMr9dfhH9mvI6Wx6b34mj3yh2tRAH0%2BFY2O86Jpd%2BL21MiFDhPo66Uw4ronufKwIGHKymRJBi0RB1InU9DkAiRTKnfN0OXjQ%3D\"}],\"group\":\"cf-nel\",\"max_age\":604800}\nNEL: {\"success_fraction\":0,\"report_to\":\"cf-nel\",\"max_age\":604800}\nVary: Accept-Encoding\nServer: cloudflare\nCF-RAY: 6ec24b915bd98807-SIN\nContent-Encoding: gzip\nalt-svc: h3\u003d\":443\"; ma\u003d86400, h3-29\u003d\":443\"; ma\u003d86400","responseCookies":"","responseBody":"{\n    \"page\": 2,\n    \"per_page\": 6,\n    \"total\": 12,\n    \"total_pages\": 2,\n    \"data\": [\n        {\n            \"id\": 7,\n            \"email\": \"michael.lawson@reqres.in\",\n            \"first_name\": \"Michael\",\n            \"last_name\": \"Lawson\",\n            \"avatar\": \"https://reqres.in/img/faces/7-image.jpg\"\n        },\n        {\n            \"id\": 8,\n            \"email\": \"lindsay.ferguson@reqres.in\",\n            \"first_name\": \"Lindsay\",\n            \"last_name\": \"Ferguson\",\n            \"avatar\": \"https://reqres.in/img/faces/8-image.jpg\"\n        },\n        {\n            \"id\": 9,\n            \"email\": \"tobias.funke@reqres.in\",\n            \"first_name\": \"Tobias\",\n            \"last_name\": \"Funke\",\n            \"avatar\": \"https://reqres.in/img/faces/9-image.jpg\"\n        },\n        {\n            \"id\": 10,\n            \"email\": \"byron.fields@reqres.in\",\n            \"first_name\": \"Byron\",\n            \"last_name\": \"Fields\",\n            \"avatar\": \"https://reqres.in/img/faces/10-image.jpg\"\n        },\n        {\n            \"id\": 11,\n            \"email\": \"george.edwards@reqres.in\",\n            \"first_name\": \"George\",\n            \"last_name\": \"Edwards\",\n            \"avatar\": \"https://reqres.in/img/faces/11-image.jpg\"\n        },\n        {\n            \"id\": 12,\n            \"email\": \"rachel.howell@reqres.in\",\n            \"first_name\": \"Rachel\",\n            \"last_name\": \"Howell\",\n            \"avatar\": \"https://reqres.in/img/faces/12-image.jpg\"\n        }\n    ],\n    \"support\": {\n        \"url\": \"https://reqres.in/#support-heading\",\n        \"text\": \"To keep ReqRes free, contributions towards server costs are appreciated!\"\n    }\n}","statusCode":200},"precondition":false,"level":1}]}],"userStory":{"id":"this-is-feature-contains-all-scenarios-involves-user","storyName":"This is feature contains all scenarios involves user","displayName":"This is feature contains all scenarios involves user","path":"user.feature","type":"feature"},"featureTag":{"name":"This is feature contains all scenarios involves user","type":"feature","displayName":"This is feature contains all scenarios involves user"},"title":"Verify that the status code return 200 when user get list","description":"","tags":[{"name":"This is feature contains all scenarios involves user","type":"feature","displayName":"This is feature contains all scenarios involves user"},{"name":"GetList200","type":"tag","displayName":"GetList200"}],"startTime":"2022-03-15T10:52:13.857+07:00[Asia/Ho_Chi_Minh]","duration":1230,"projectKey":"","isManualTestingUpToDate":false,"manual":false,"testSource":"Cucumber","result":"SUCCESS"}